8.75896875
8.76022883
8.76148891
8.76274899
8.76400907
8.76526915
8.76652923
8.76778931
8.76904940
8.77030948
8.77156956
8.77282964
8.77408972
8.77534980
8.77660988
8.77786996
8.77913004
8.78039012
8.78165020
8.78291028
8.78417036
8.78543044
8.78669052
8.78795060
8.78921069
8.79047077
8.79173085
8.79299093
8.79425101
8.79551109
8.79677117
8.79803125
