8.08637914
8.09764406
8.10890899
8.12017391
8.13143884
8.14270376
8.15396869
8.16523361
8.17649854
8.18776346
8.19902839
8.21029331
8.22155824
8.23282316
8.24408809
8.25535301
8.26661793
8.27788286
8.28914778
8.30041271
8.31167763
8.32294256
8.33420748
8.34547241
8.35673733
8.36800226
8.37926718
8.39053211
8.40179703
8.41306196
8.42432688
8.43559181
