7.72647758
7.74555132
7.76462506
7.78369880
7.80277255
7.82184629
7.84092003
7.85999378
7.87906752
7.89814126
7.91721500
7.93628875
7.95536249
7.97443623
7.99350998
8.01258372
8.03165746
8.05073120
8.06980495
8.08887869
8.10795243
8.12702618
8.14609992
8.16517366
8.18424740
8.20332115
8.22239489
8.24146863
8.26054238
8.27961612
8.29868986
8.31776360
